"","ACOUST_ANA_DESCR","DESCRIPTION","COMMENTS","frequency","ArticleID","StudyID","Title","Authors","Year_publication","Article","SAMPLE_SIZE_SZ","SAMPLE_SIZE_HC","PITCH_F0_HC_M","PITCH_F0_HC_SD","PITCH_F0_SZ_M","PITCH_F0_SZ_SD","PITCH_F0SD_HC_M","PITCH_F0SD_HC_SD","PITCH_F0SD_SZ_M","PITCH_F0SD_SZ_SD","pitch_f0_variability","yi","vi"
"2",NA,NA,NA,NA,NA,NA,NA,NA,NA,NA,NA,NA,NA,NA,NA,NA,NA,NA,NA,NA,NA,NA,NA
"3",NA,NA,NA,NA,NA,NA,NA,NA,NA,NA,NA,NA,NA,NA,NA,NA,NA,NA,NA,NA,NA,NA,NA
"4","NA","Assessing pitch variability in skizo people","very hard","NA","47","49","our own","signe, natacha, kat, frede","2018","NA","335","352","143.5810","51.03645","158.3649","54.74809","22.94326","15.79852","22.95560","29.54196","NA","find","find"
"5","NA","Assessing pitch variability in skizo people","very hard","NA","47","49","our own","signe, natacha, kat, frede","2018","NA","182","184","116.1300","34.76154","134.4693","60.50305","30.08665","20.48901","25.79768","47.36456","NA","find","find"
"6","NA","Assessing pitch variability in skizo people","very hard","NA","47","49","our own","signe, natacha, kat, frede","2018","NA","158","128","154.8304","46.62267","156.6280","46.65587","26.02560","21.31672","18.10293","12.57604","NA","find","find"
