"","condition","RR","DET","NRLINE","maxL","L","ENTR","rENTR","LAM","TT"
"1","Synchronous.",5.95638506012443,88.8048225379836,45400,34,4.45193832599119,2.03311494256822,0.58147019756923,96.3163120941309,7.06162419869214
"2","Synchronous.",11.4796460473437,97.1587567195415,60400,21,7.05600993377484,2.61901103628045,0.874247361622,98.6207556890978,9.20260381211709
"3","Synchronous.",5.7535995858341,85.5622595113955,49079,25,3.82850098820269,1.82370865802509,0.608768905727859,90.5662439379796,4.01964469775056
"4","Synchronous.",4.98035296304786,80.945933356107,33617,30,3.87681827646726,1.81243771949891,0.556287297920133,89.8860283842117,3.95563876892801
"5","Synchronous.",4.87761041367334,80.5527206316807,39774,26,3.7704279177352,1.76291134606668,0.562243533128085,89.6879196433367,3.94779524766521
"6","Synchronous.",6.05090999977419,88.8172625681188,48372,17,3.59172661870504,1.67623245988163,0.604573064312086,92.3159896530923,3.92862115476657
"7","Synchronous.",6.78475511063636,92.1454722779098,48572,51,4.90181586098987,2.19739747237128,0.595681561217914,96.1665879730326,6.34932924492143
"8","Synchronous.",5.47255136785107,86.8929261342714,36321,41,4.22306654552463,1.96349004629381,0.5717814101722,95.2102558873348,6.09383611312545
"9","Synchronous.",5.32392557342115,84.0554279518241,37700,23,3.82458885941645,1.81976514791996,0.588722146453488,95.2896734251303,6.13696264313873
"10","Synchronous.",5.86561255688842,87.8517517078368,49244,42,3.98515555194541,1.87932827138486,0.524436539519039,95.5981233940067,6.16801455721795
"11","Synchronous.",7.70543342694879,94.1407460158441,46000,21,5.08660869565217,2.20139036694499,0.734842157417948,96.7523245100524,6.05669453959299
"12","Synchronous.",8.37806457499812,93.5597515030951,54116,39,4.66697464705448,2.1266816090468,0.613630602184317,96.6378087225822,6.48116770186335
"13","Synchronous.",6.84417745091552,89.7586409309071,53930,37,4.33812349341739,1.99268976819573,0.598009444531648,93.4183518831839,4.96865689915521
"14","Synchronous.",5.75686994726884,84.2428942238306,39277,33,3.98283982992591,1.84461303569362,0.542342248538415,92.3804754057751,4.78240869807639
"15","Synchronous.",5.30725901538196,79.8814042023146,37296,23,3.66253753753754,1.73099294039184,0.56000296550802,92.1971216542593,4.74430501640035
"16","Synchronous.",6.84022795471887,87.5149497733091,48300,34,3.98443064182195,1.87599314336869,0.551568442773498,93.1087797801758,4.70784760065301
"17","Synchronous.",5.99089050009295,85.2918874614842,50029,30,3.88966399488297,1.82122513009595,0.546552627407671,92.750040542969,4.81636926438456
"18","Synchronous.",8.51027419025318,92.101505238463,57707,17,4.38120158732909,1.95149585405734,0.703853347740975,94.6172789135471,5.01771535652879
"19","Synchronous.",7.56016177424045,90.1662629828811,54144,33,4.05651595744681,1.90121942279408,0.57055904491712,93.2957017939981,4.80635746462788
"20","Synchronous.",5.517739713436,80.6671289327854,38790,30,3.68891466872905,1.74686738719363,0.542694866853139,92.2418215540034,4.75764712723889
"21","Synchronous.",4.89551143989762,87.1060811349327,37174,41,4.41001775434443,2.04116197240321,0.58377164542642,91.8004303817646,5.44149790557778
"22","Synchronous.",4.55725863662747,81.3589589805449,30838,30,3.91500745833063,1.82932870066568,0.548984522132316,91.4591658636189,5.31002777886459
"23","Synchronous.",4.52429924644204,78.3257223626628,30734,23,3.75027656666884,1.78342350696245,0.576965064010951,91.7155943352633,5.45401276974056
"24","Synchronous.",5.80581943900928,86.8956256833211,38353,34,4.26894897400464,1.99343327109448,0.627249687232715,92.6838200171958,5.73281465432342
"25","Synchronous.",5.67914511005044,84.0223106013336,38920,25,3.97890544707091,1.86887324557856,0.588055881159805,93.025224218288,5.63375283409457
"26","Synchronous.",4.80288416518401,83.3620372175646,39646,28,3.88243454572971,1.82506354461474,0.560162513085949,92.2114988843396,5.48952153727109
"27","Synchronous.",4.15436445661955,86.358797699484,27578,22,4.23602146638625,1.9266251283826,0.680014137454369,89.361592028032,4.85727488246876
"28","Synchronous.",6.16758440248788,89.7739338501034,40215,43,4.47820465000622,2.05466773713745,0.598332962468189,92.873557488597,5.77201189664787
"29","Synchronous.",4.91632592063057,80.2683781361446,33697,30,3.80060539513903,1.8115287925868,0.562783061897387,92.0990780377434,5.54844434375472
"30","Synchronous.",5.39772534688306,85.3842465206024,34849,39,4.29197394473299,1.98247192860344,0.577309061027988,92.601641796157,5.61294117647059
"31","Synchronous.",7.3564745845995,91.9174694596669,53753,49,4.83346045802095,2.16977896796471,0.573380083417768,95.3615487212507,5.77252382482064
"32","Synchronous.",5.71974910205934,85.8952525746335,37841,53,4.22525831769773,1.93997998596387,0.545651214005519,94.0470498487722,5.51967461218312
"33","Synchronous.",5.42049537140859,82.1778806864615,37946,38,3.81605439308491,1.80017198472149,0.574127030940172,94.0439707618269,5.51200771687068
"34","Synchronous.",7.08880459819019,89.6089210535472,46683,37,4.41351241351241,2.03028400304204,0.571050701064557,94.7087784001948,5.70072514987303
"35","Synchronous.",7.39233127292829,87.3797299946199,50341,41,4.16187600564153,1.92943073504383,0.556716030637297,95.1700149724948,5.69398143527298
"36","Synchronous.",5.74634500914702,85.8098771206259,37294,50,4.32919504477932,1.98575457681333,0.572967656078231,93.7008376206471,5.44169393172418
"37","Synchronous.",6.02901999731412,87.0522417053019,49212,37,4.09778102901731,1.90608799327487,0.555065549104354,94.4283284553688,5.55279991876936
"38","Synchronous.",8.37191966177389,93.827604558551,59400,16,4.30367003367003,1.92281284061291,0.710035892181873,96.2746141564662,4.8397542344736
"39","Synchronous.",7.96404424424591,92.1060051836087,54174,45,4.401668697161,2.02129901189038,0.568523524822942,94.9809380709405,5.52209746238491
"40","Synchronous.",5.60924694245819,82.2912200859633,38876,33,3.85119353842988,1.82037480028758,0.565531228705324,93.8517516956326,5.47738500032078
"41","Synchronous.",6.14668493067907,87.3130360636003,40836,46,4.26280732686845,1.95056247942285,0.568016816392096,94.1355269097658,5.48830272546497
"42","Synchronous.",5.21102284770133,84.8116325956489,33935,62,4.26429939590393,1.95518039305588,0.554447107551121,93.7054576144036,5.49089910021293
"43","Synchronous.",0,NA,0,0,0,NA,NA,NA,NA
"44","Synchronous.",0,NA,0,0,0,NA,NA,NA,NA
"45","Synchronous.",0,NA,0,0,0,NA,NA,NA,NA
"46","Synchronous.",0,NA,0,0,0,NA,NA,NA,NA
"47","Synchronous.",0,NA,0,0,0,NA,NA,NA,NA
"48","Synchronous.",0,NA,0,0,0,NA,NA,NA,NA
"49","Synchronous.",0,NA,0,0,0,NA,NA,NA,NA
"50","Synchronous.",0,NA,0,0,0,NA,NA,NA,NA
"51","Synchronous.",0,NA,0,0,0,NA,NA,NA,NA
"52","Synchronous.",0,NA,0,0,0,NA,NA,NA,NA
"53","Synchronous.",0,NA,0,0,0,NA,NA,NA,NA
"54","Synchronous.",0,NA,0,0,0,NA,NA,NA,NA
"55","Synchronous.",0,NA,0,0,0,NA,NA,NA,NA
"56","Synchronous.",0,NA,0,0,0,NA,NA,NA,NA
"57","Synchronous.",5.43015809037574,94.7391228376726,51513,15,5.26267155863569,1.99949481351569,0.757654936509922,100,202.083333333333
"58","Synchronous.",8.91040949571384,94.8865979381443,95043,9,3.97045547804678,1.75149268339565,0.842289936162736,100,202.083333333333
"59","Synchronous.",7.83248178645183,88.6964490263459,68428,10,4.52633424913778,1.94917505365983,0.887107796701825,100,202.083333333333
"60","Synchronous.",18.8071844624838,97.8275810548334,123506,30,6.62680355610253,2.37719355189628,0.705965163715903,100,202.083333333333
"61","Synchronous.",8.99474039510093,87.0447985004686,92510,10,3.76486866284726,1.69021076967099,0.769248071910838,100,202.083333333333
"62","Synchronous.",10.3143002843712,90.9388460085281,76147,16,5.53148515371584,2.09101994465728,0.772149624038066,100,202.083333333333
"63","Synchronous.",10.1579076715487,91.3156393946041,80901,15,5.14589436471737,2.04999929237265,0.776792254327994,100,202.083333333333
"64","Synchronous.",0,NA,0,0,0,NA,NA,NA,NA
"65","Synchronous.",7.91514569105617,89.3162311196356,92630,10,4.02178559861816,1.75440431133676,0.798463811770981,100,202.083333333333
"66","Synchronous.",0,NA,0,0,0,NA,NA,NA,NA
"67","Synchronous.",14.2507654725721,97.9216180058236,110589,21,5.62574035392309,2.16347980572711,0.722187301190459,100,202.083333333333
"68","Synchronous.",7.35933305053712,81.3055364642994,58656,11,4.53788188761593,1.83895217677704,0.798646782858241,100,202.083333333333
"69","Synchronous.",11.8839600371636,93.877801948359,86075,15,5.76572756317165,2.08878841351799,0.791490351527343,100,202.083333333333
"70","Synchronous.",7.29021224288014,85.7499809087438,58728,13,4.7800708350361,1.92001178049681,0.772669581233813,100,202.083333333333
"71","Synchronous.",30.5817858622156,99.3510618920986,169208,23,8.05897475296676,2.58486776508464,0.836244666350754,100,202.083333333333
"72","Synchronous.",0,NA,0,0,0,NA,NA,NA,NA
"73","Synchronous.",5.92278276073641,89.896668774958,56018,42,4.28796101253169,1.99448198523786,0.565592193797302,94.3558920504942,4.79175140169153
"74","Synchronous.",5.22831788742229,84.7876142518195,41574,48,4.07434935296098,1.88203090732906,0.548059965066536,93.3020652924747,4.6269579247859
"75","Synchronous.",7.45865824181461,94.9417721341329,55818,21,4.84762979683973,2.11124165744389,0.704749778904378,97.6533415672226,5.6807846178968
"76","Synchronous.",6.32712077397084,91.3185949182257,43263,14,4.32226151676953,1.94505643040618,0.758321572606468,98.8802125300946,13.6101364522417
"77","Synchronous.",8.20647406694774,94.8091958866892,59492,45,4.99172998050158,2.2250264325515,0.595297781716032,98.1617165825424,6.33329900304853
"78","Synchronous.",5.96609196415618,89.2348293168526,41395,35,4.15772436284575,1.92616814672605,0.550883449517894,97.5486332904724,5.99261052363358
"79","Synchronous.",5.61979729401225,85.8503926160628,42087,22,3.70178439898306,1.75918155947823,0.577818556263845,97.5737704918033,6.03826086956522
"80","Synchronous.",6.35839498138245,90.757306676446,53812,49,4.09310191035457,1.90762584646325,0.555513382219855,97.8548677525557,6.21065432292484
"81","Synchronous.",11.9103143618711,96.3237299272537,58580,19,6.33120518948447,2.47609173344572,0.856668948096839,97.8830605889824,7.87887530051218
"82","Synchronous.",5.5036430647328,84.9420554683512,45005,27,3.9559160093323,1.87541931885852,0.590115655357917,89.6744705315439,4.40578045521671
"83","Synchronous.",4.94111650923377,79.9060113815323,33899,29,3.75689548364259,1.7714888300518,0.543718950429737,89.2634630225686,4.23470055959043
"84","Synchronous.",4.71340813731506,76.6025535501458,32060,24,3.62863381160324,1.71882833113221,0.556067526431013,89.0206562320978,4.23908817258247
"85","Synchronous.",5.42470268432514,83.3115438427487,37743,32,3.84950851813581,1.82872715269185,0.561286975800405,89.6069863987706,4.36657538839835
"86","Synchronous.",4.9078179108334,80.3205889591559,40705,32,3.68809728534578,1.7420226355194,0.528552445507207,89.0490406942527,4.29362294912806
"87","Synchronous.",5.46917215891459,86.4426859546295,38928,15,3.91741163173037,1.80094874083854,0.682421226939049,89.2089063226275,4.33187448389761
"88","Synchronous.",5.87364266092617,85.8298546895641,42434,29,3.82789744073149,1.80933597704856,0.562101825447909,89.4092470277411,4.33264198289548
"89","Synchronous.",5.68377441882693,89.7624008463575,44221,46,4.39377218968363,2.02877443783496,0.57531679579353,94.2459703312898,5.1678784040532
"90","Synchronous.",5.18060631688857,84.6546503416993,34627,37,4.08533803101626,1.88043096393338,0.542577685280149,93.9194283867725,5.13479469982006
"91","Synchronous.",4.94875731722419,80.9852618375666,34281,27,3.76683877366471,1.77356479392133,0.565641226480709,93.914706804641,5.15568944740919
"92","Synchronous.",6.26340459536358,88.2448760671239,40947,64,4.33948763035143,2.00754189427143,0.58460960240311,94.1432963016304,5.46000748869495
"93","Synchronous.",6.11471954048231,85.3356665767961,42287,46,3.96698749024523,1.84615465027712,0.537612559495228,94.4271768601936,5.25951321791857
"94","Synchronous.",5.33616817021205,85.7488719066623,43431,38,4.01229536506182,1.85984776248192,0.541600085187494,94.2185523991359,5.23872062163124
"95","Synchronous.",6.60378031173668,93.3989634386795,42042,15,4.73219637505352,2.07108267944703,0.784781238439018,95.7936642067114,5.5522842915839
"96","Synchronous.",6.6715890430261,91.0802009676219,45094,54,4.34173060717612,1.99921977734104,0.566935729737573,94.3110346110904,5.32675582647994
"97","Synchronous.",5.13871724612882,81.3434462052518,35655,29,3.76892441452812,1.78241477371782,0.553738283393023,93.7058873379257,5.16633293285276
"98","Synchronous.",4.47901384857092,85.0934706985766,35218,41,4.16051450962576,1.94658653032675,0.56166614679273,90.649445680138,4.85541868856539
"99","Synchronous.",4.52396819595908,81.1708721123624,30126,34,3.96906326760937,1.83980939360117,0.55212979515007,91.0365286574479,4.95638836530288
"100","Synchronous.",4.33878440740707,77.5796828276243,29060,23,3.76744666207846,1.76169055890596,0.5699341194722,91.2331174444807,4.94507604854816
"101","Synchronous.",4.89392450074415,84.9563038331738,33064,35,4.08090370191144,1.91259714821573,0.562330536453915,91.5938397219564,5.01544561282538
"102","Synchronous.",5.22674119426992,83.2660280029477,36417,37,3.87840843562073,1.82215310562216,0.546831114374296,92.5264554163596,5.03296562339661
"103","Synchronous.",5.03763621379079,83.88492347217,32073,50,4.31646556293455,1.98137482508481,0.540832942494096,91.9733637101758,5.06611708163674
"104","Synchronous.",4.66809210184058,83.0638240964661,37785,30,3.94516342463941,1.83896370470458,0.55796563345504,92.0735308867615,5.0155410532706
"105","Synchronous.",3.73897100599166,90.3522029109308,26644,18,4.12858429665215,1.84733626323994,0.65202864694798,93.3214508657226,4.90595448853577
"106","Synchronous.",5.11152719234329,87.7526224617457,34758,46,4.19742217618965,1.9443999984666,0.561035247058454,91.238812433837,5.00511433002277
"107","Synchronous.",4.70516095435595,79.448322833305,32443,28,3.73935825910058,1.7702854645043,0.557034449070512,91.4242491715674,4.99259709605894
"108","Synchronous.",5.00697925942816,84.4005587933019,32696,60,4.19454979202349,1.93130538609673,0.547676669079928,91.891343011699,5.04807464755401
"109","Synchronous.",8.82152847397247,93.8020539842042,67277,66,4.72587957251364,2.14882123891553,0.599639983998886,97.478101554502,6.29434961517946
"110","Synchronous.",7.62677256666455,89.5735380028605,52263,31,4.25398465453571,1.96777177630817,0.578552655284747,97.6471062226788,6.45377323321084
"111","Synchronous.",6.79250750513801,86.3633275817562,48937,20,3.89680609763574,1.85068928981127,0.628537151866937,97.4113374001966,6.54992539358689
"112","Synchronous.",10.5032253370318,93.3752304242154,67705,34,4.69842699948305,2.13881496365213,0.635172872132449,98.0051427162465,6.89920238046039
"113","Synchronous.",8.94634468483017,88.7165808572669,65139,43,3.95210242711739,1.86231246866729,0.55888300462368,97.5191089607069,6.37368800396414
"114","Synchronous.",7.26484214898497,88.5972287616869,46587,36,4.52375126108142,2.06544088545275,0.595960264538398,97.779478038609,6.5020127474002
"115","Synchronous.",9.20760120532403,90.5770334896471,62761,40,4.34862414556811,1.9929264330369,0.551916848084067,97.5374771420132,6.39991725099081
"116","Synchronous.",7.65712658719377,89.8018768842769,63626,32,4.15250055008959,1.92916258054545,0.585333151784373,97.7543327747773,6.58298427521802
"117","Synchronous.",13.8374583754687,97.7653916615778,69717,25,6.31498773613322,2.46962392534897,0.777086876806798,99.2536501415644,7.73628732150584
"118","Synchronous.",11.7824283639614,95.3315753746541,76124,47,4.79663443854763,2.15860558471047,0.593417032594174,98.0818234034776,6.85472128455433
"119","Synchronous.",7.05427439243024,85.0499108422782,49895,28,3.90021044192805,1.84518193459019,0.573237998289588,97.570452082095,6.47079794788557
"120","Synchronous.",8.35368919793423,91.1254636378735,55020,52,4.48762268266085,2.03567944756679,0.572568258398308,97.819195069292,6.68852045322634
"121","Synchronous.",5.96480458358911,85.9921660991782,40020,38,4.19657671164418,1.92629310183486,0.546255293067214,97.5474258211515,6.42676426932938
"122","Synchronous.",6.75612052730697,93.2830689988696,50787,21,4.72851320219741,1.8674723719823,0.62337759233966,100,76.1428571428571
"123","Synchronous.",8.6207313241656,89.2324944469604,46284,12,5.36401348198082,2.21962184072387,0.925654204294563,100,76.1428571428571
"124","Synchronous.",7.53913527376545,91.5522859682038,52092,9,4.27159640635798,1.85276716534986,0.890992667124049,100,76.1428571428571
"125","Synchronous.",2.83348286815878,80.333102926171,13254,9,5.52421910366682,1.71725079431452,0.82582306830673,100,76.1428571428571
"126","Synchronous.",4.27507941511676,86.4457437060954,39975,7,2.97373358348968,1.23883261105911,0.691405644750317,100,76.1428571428571
"127","Synchronous.",4.18568340139323,81.8276128462642,27582,10,4.03219490972373,1.63809404747091,0.745528729455976,100,76.1428571428571
"128","Synchronous.",4.28653832287836,83.4551767268336,24573,11,4.72457575387621,1.82244729980848,0.791478805866305,100,76.1428571428571
"129","Synchronous.",0,NA,0,0,0,NA,NA,NA,NA
"130","Synchronous.",5.49721608122492,90.94138034745,53208,9,3.58017591339648,1.57109873162671,0.75553878295493,100,76.1428571428571
"131","Synchronous.",0,NA,0,0,0,NA,NA,NA,NA
"132","Synchronous.",5.30715443613752,93.8033700969648,38985,12,4.11673720661793,1.8475989760542,0.770508619376873,100,76.1428571428571
"133","Synchronous.",6.21377821964645,88.1906191369606,46875,9,3.760448,1.75497120454531,0.843962751233483,100,76.1428571428571
"134","Synchronous.",6.01493731661776,92.8457351960678,40773,12,4.4057832389081,1.82804236656363,0.762352879752869,100,76.1428571428571
"135","Synchronous.",5.61374009128033,81.0950923274415,34209,15,4.32123125493291,1.76260013940276,0.667890052869645,100,76.1428571428571
"136","Synchronous.",20.4472805056841,98.9479870702321,88524,19,7.41724278161854,2.54732224742275,0.881313014654174,100,76.1428571428571
"137","Synchronous.",5.01908667834108,89.5915882762167,55288,34,4.28590290840689,1.99924805559902,0.59997759726155,94.5819848159463,5.43502726660438
"138","Synchronous.",5.12667815139362,85.8181103050433,47875,38,4.10170234986945,1.91617356947934,0.5750468086902,94.9392535617516,5.71970195624128
"139","Synchronous.",4.70240494424291,82.0305270689244,46394,25,3.70688020002587,1.76129425931068,0.578512490986174,94.9096112568567,5.63182474314342
"140","Synchronous.",5.11314883240907,87.7391132311886,47738,30,4.18046420042733,1.96683483667101,0.603676046341276,94.3382207469609,5.45608726606998
"141","Synchronous.",5.31294952627139,84.9553403316366,52945,33,3.7923505524601,1.80053056249154,0.546304515573428,94.8024692925113,5.4381932477367
"142","Synchronous.",4.6657803728224,85.27457737135,43831,39,4.0763158495129,1.92223964621241,0.545105820234205,94.5079752961503,5.32871367061356
"143","Synchronous.",5.26295032963625,87.1854467249204,50027,29,4.11655705918804,1.92855996884811,0.585150311515927,94.7084772742667,5.39864375693808
"144","Synchronous.",0,NA,0,0,0,NA,NA,NA,NA
"145","Synchronous.",10.3612931881656,94.1535808082788,93758,14,6.40465880244886,2.41167129699142,0.940241291694813,94.2965779467681,6.52631578947368
"146","Synchronous.",4.79874921341935,85.7476164301222,55655,40,3.89607402749079,1.83663910744837,0.539997801171661,94.8176386148206,5.53017967110271
"147","Synchronous.",4.38205290726475,91.4615128972058,40929,20,4.37061741063793,1.96355281622744,0.666868231986017,94.1856481836542,5.1788867022772
"148","Synchronous.",5.37727238980638,90.6981788452394,53363,32,4.0746959503776,1.91835162784373,0.582052967375604,94.3984683279247,5.31054792913293
"149","Synchronous.",4.75261738234565,82.3585615158667,47270,22,3.68352020308864,1.75920910587034,0.577827604117056,94.5907850362081,5.537952424469
"150","Synchronous.",5.02853476718656,87.29855023224,47658,35,4.09750723907843,1.92228763076078,0.570869839721952,94.7530298492116,5.4961622238357
"151","Synchronous.",4.63467101351487,84.467027027027,43456,29,4.04540224594993,1.89553406159054,0.575129819422334,94.8603003003003,5.53935074773435
"152","Synchronous.",7.50998912910034,91.5438885889075,67771,51,4.55292086585708,2.08812828700244,0.582703293289157,94.7267235905987,5.82911600394348
"153","Synchronous.",13.4001016420448,97.030315528975,70599,26,8.19721242510517,2.70990506418598,0.841879342859378,97.3190348525469,8.85365853658537
"154","TurnTaking.",5.66210617359343,83.0719729960243,58286,23,3.15830559654119,1.47321235051295,0.483889470564901,93.0734621858599,4.20408080066858
"155","TurnTaking.",6.74576518038626,88.2927790066968,73630,11,3.16582914572864,1.28638004441073,0.558667754918041,88.5245901639344,3.17647058823529
"156","TurnTaking.",4.69067900335582,83.992495656597,38387,25,3.31224112329695,1.5626079797922,0.505527828676206,95.6143190270777,4.22598540145985
"157","TurnTaking.",4.23881498634516,83.5184019571749,45217,23,3.11055576442488,1.44544703405647,0.467624452225183,95.7525266320677,4.26572668112798
"158","TurnTaking.",4.4468476061514,81.4674935544561,36333,24,3.21784603528473,1.50325830316531,0.501799949359932,95.8184098669082,4.28898038114844
"159","TurnTaking.",7.35322619212424,93.8769083316218,69527,10,3.94453953140507,1.72919367566001,0.786989957010395,94.0740740740741,3.96875
"160","TurnTaking.",6.57855324708942,82.013603275279,52080,23,3.36177035330261,1.5905442028167,0.514565628527238,90.5578092356121,4.41785689800955
"161","TurnTaking.",5.54496983654159,79.2732804853825,56089,19,3.13079213393,1.46936270707251,0.508364608482759,88.8834215135701,4.20671310144432
"162","TurnTaking.",3.95240118997025,77.8571428571429,32300,27,3.13839009287926,1.46976038417707,0.482755642056,84.4139784946236,3.75403900672883
"163","TurnTaking.",5.11978206874449,76.0304562417238,42119,21,2.99905030983642,1.36025714351899,0.454064989561049,88.5765017455158,4.17596481271283
"164","TurnTaking.",2.87096047460512,84.6702472709518,32460,8,2.9916820702403,1.20779709916237,0.620684927178534,84.9056603773585,3
"165","TurnTaking.",3.71528747495598,79.5251207216335,30635,24,3.17708503345846,1.48457567452845,0.480283172078566,84.7143125607693,3.75764714409974
"166","TurnTaking.",6.03812067470308,83.7205258043067,49687,37,3.29426208062471,1.53207168569965,0.44614950332331,94.1015804818168,3.98384617050302
"167","TurnTaking.",5.35864449640252,83.5891049709272,57766,26,3.09088391095108,1.42686502378544,0.455068619338089,94.0258050018258,3.95325171246359
"168","TurnTaking.",4.83358483218536,85.7110487292136,40739,26,3.34264464027099,1.58222464999997,0.497859612977903,93.3118493435214,4.00843585237258
"169","TurnTaking.",5.37081860870407,79.5044842038848,47001,24,3.00270207016872,1.38128638360696,0.453695583416304,94.87302266889,3.74138582187368
"170","TurnTaking.",5.34567167645482,79.3568626544726,43261,23,3.17509997457294,1.45863651556077,0.479101910200237,93.7436809964816,3.94706755211754
"171","TurnTaking.",10.7490993748307,93.2452995761683,97830,11,4.08392108760094,1.7692286995251,0.768366261428619,93.4343434343434,4.11111111111111
"172","TurnTaking.",5.2260447343442,88.5707133625959,43497,33,3.49782743637492,1.65958516098063,0.522201715129201,93.3402414744612,3.9847407922859
"173","TurnTaking.",5.53480660308854,83.2844991581571,47184,27,3.22893353679213,1.50057341227373,0.4721673994142,94.1541119104367,3.93066934434834
"174","TurnTaking.",5.57025285125656,80.1547587486745,42529,35,3.41237743657269,1.58408339836054,0.461295661291797,89.1646783315659,4.20608618623313
"175","TurnTaking.",4.80676548831246,78.3266265298271,49479,21,3.04482709836496,1.40014955195744,0.467381402643292,88.42218548211,4.07165429734259
"176","TurnTaking.",4.53881192739792,82.5652359712615,36644,22,3.37444056325729,1.59902458134592,0.525213597224007,88.9492802008493,4.15100336532469
"177","TurnTaking.",4.80134785675104,73.2947483396316,37664,23,3.1000424808836,1.43081497447606,0.462890754839528,87.7007193883316,4.0206342811097
"178","TurnTaking.",5.09685951172125,79.9502177971375,40590,40,3.32357723577236,1.55571470090818,0.472024182068887,88.4967552671349,4.09143217250733
"179","TurnTaking.",4.90932064241762,75.2646124344344,37312,25,3.21885720411664,1.48355759505875,0.479953807637588,88.7424564305992,4.0833044982699
"180","TurnTaking.",6.16511120246608,85.7387229626747,67129,8,3.15085879426179,1.43110840203829,0.735444235558901,85.9649122807018,3.16129032258065
"181","TurnTaking.",4.83420868400396,84.5333550664218,38142,35,3.53521052907556,1.66663639324242,0.476657454315187,88.7650381478393,4.11299927378359
"182","TurnTaking.",5.07173298451411,78.7131625394448,40907,24,3.23790549294742,1.5087071327606,0.488090071723681,88.5638218846755,4.11727815228202
"183","TurnTaking.",5.01028826473282,76.9203407508335,39814,22,3.20457627970061,1.48366005505359,0.487321110421185,88.9575508383122,4.12608707810184
"184","TurnTaking.",4.92912027156551,86.8563888058958,39984,44,3.48989595838335,1.64906592609736,0.460180608619254,96.32506722438,5.03930443843824
"185","TurnTaking.",4.42122787516885,86.1133032694476,48110,43,3.17532737476616,1.49037031153554,0.482157826695749,96.0913190529876,5.01916791802844
"186","TurnTaking.",4.42164246769104,89.7749798356779,35898,53,3.65867179230041,1.75477362433811,0.521122500943186,96.2863470450724,5.24558724957176
"187","TurnTaking.",4.52701565393031,80.7047247231296,37204,24,3.26714869368885,1.54257450417616,0.499046689734141,96.184234987916,4.980403616736
"188","TurnTaking.",4.7842120610378,87.4309748833578,40336,38,3.44250793335978,1.63690303871205,0.491237267614762,96.2202255397654,5.12633344515263
"189","TurnTaking.",4.52538737335121,83.4602071535615,35801,33,3.51562805508226,1.66898496730457,0.481567267129706,96.3091654178216,5.09596154520894
"190","TurnTaking.",4.77129613379952,83.8430474818663,39341,29,3.31425230675377,1.55679286392027,0.489857298530977,96.5488193837132,5.20361128439731
"191","TurnTaking.",3.93703613244743,87.4661332388018,39042,10,3.53906049894985,1.52175470863297,0.692580414550911,87.6712328767123,3.55555555555556
"192","TurnTaking.",4.64420856655827,92.580468821179,35146,48,4.04771524497809,1.91952030919634,0.531587910784353,96.567791646601,5.28353213459142
"193","TurnTaking.",4.52154519441171,85.6278667818919,39330,28,3.27510806000509,1.53895416903824,0.47810299395481,96.2460945290168,5.07067558575281
"194","TurnTaking.",4.58169058888171,84.3131969282558,39912,30,3.21299358588896,1.50249757863435,0.479190033584264,96.3805754260467,5.09793079464441
"195","TurnTaking.",4.48475653304302,90.3293365093809,35883,46,3.76219937017529,1.77889163643136,0.518025120800666,96.0181195300163,4.93266190017874
"196","TurnTaking.",6.72385662570744,89.7878235508567,70338,13,3.50149279194745,1.5164529116673,0.610265545305967,99.9526066350711,54.0769230769231
"197","TurnTaking.",5.62984851139749,85.5881728796774,72252,8,3.34927752864973,1.51234284100605,0.777190479087771,99.9526066350711,54.0769230769231
"198","TurnTaking.",6.67450643279373,92.3237220071633,58542,16,4.35912678077278,1.92596374442903,0.711199424458651,99.9526066350711,54.0769230769231
"199","TurnTaking.",2.93888803504188,80.1037751266547,29721,7,3.29837488644393,1.43409810494346,0.800385391885954,99.9526066350711,54.0769230769231
"200","TurnTaking.",8.68373779304396,90.3201130789058,85764,9,3.79977612984469,1.75294603871494,0.842988852333334,99.9526066350711,54.0769230769231
"201","TurnTaking.",4.4010775291631,80.720705997712,42609,9,3.47764556783778,1.5352860769479,0.738316536519534,99.9526066350711,54.0769230769231
"202","TurnTaking.",8.52583548836284,97.1056395299924,50259,70,6.88969139855548,2.27235792842578,0.536679444874266,99.9526066350711,54.0769230769231
"203","TurnTaking.",6.2066368852684,89.1255924170616,57996,10,3.89106145251397,1.71547244002194,0.780745153552612,99.9526066350711,54.0769230769231
"204","TurnTaking.",90.9178520795833,99.9372322625294,102324,394,44.595344200774,3.80673245144503,0.637236989254143,99.9526066350711,54.0769230769231
"205","TurnTaking.",8.66157323339644,96.8831892946752,72210,15,4.81262982966348,2.03895055964998,0.772605633371075,99.9526066350711,54.0769230769231
"206","TurnTaking.",7.54990202105587,89.0715353541779,70962,15,3.94622474000169,1.69905092509127,0.64380978238884,99.9526066350711,54.0769230769231
"207","TurnTaking.",6.55088991405071,87.2985781990521,76158,13,3.12006617820846,1.3727561281423,0.552437705561058,99.9526066350711,54.0769230769231
"208","TurnTaking.",6.77867113687191,91.693428591639,62604,22,4.1411730879816,1.65990105630616,0.54520900740918,99.9526066350711,54.0769230769231
"209","TurnTaking.",0,NA,0,0,0,NA,NA,NA,NA
"210","TurnTaking.",7.82792958136835,91.0808873312358,61315,23,3.72983772323249,1.50099191259743,0.501043409602395,99.4878330479111,45.3282525857376
"211","TurnTaking.",8.33229293419148,93.0054159853629,81738,14,3.74381560596051,1.71847008490122,0.669982071927511,99.5410697026983,47.6803028097249
"212","TurnTaking.",5.97879730605401,94.2603541177619,44688,16,4.10640440386681,1.83948090888002,0.679263961994252,99.3985031924019,42.6891683212001
"213","TurnTaking.",7.36422554654906,87.1311971731683,64732,16,3.24551999011308,1.52266532698409,0.562273670689097,99.4728722036513,41.2746515229737
"214","TurnTaking.",8.021067749337,96.2392242612966,72983,19,3.45548963457244,1.59150764662694,0.550623857391053,99.5012345113663,47.0564879985562
"215","TurnTaking.",6.8799116471423,86.7359239824138,55371,17,3.53441332105254,1.53139785038402,0.55233502109426,99.4787973337115,44.8194888178914
"216","TurnTaking.",3.70130257145047,92.4794610581663,33006,16,3.41047082348664,1.43239112130988,0.528938171355494,99.2959250739402,35.9604284439155
"217","TurnTaking.",0.0512619676043801,NA,0,0,0,NA,NA,0,0
"218","TurnTaking.",6.92255340958724,86.603407356034,52695,16,3.6493405446437,1.63758025828563,0.604708235327067,99.5343370157037,47.2456177853784
"219","TurnTaking.",74.8586977579293,99.7682021526212,55007,324,53.6144854291272,3.65112662166261,0.631939482925841,99.7803806734993,68.15
"220","TurnTaking.",6.60357657262015,96.9570980118591,39138,20,5.32684347692779,2.24396367464227,0.776358151338842,99.4777351470759,46.928916191312
"221","TurnTaking.",9.23290717065036,92.1475875118259,76406,16,3.64583933198963,1.63029863378103,0.602019354411331,99.5990764202685,49.4076140466032
"222","TurnTaking.",6.79311560754506,84.6798540080206,58089,20,3.23520804283083,1.42548712141639,0.503134408994266,99.5228225116028,44.9381485249237
"223","TurnTaking.",7.70175543980215,94.2340202308134,55254,21,4.30776052412495,1.76559612902236,0.599637534183913,99.4243521982699,42.607906345436
"224","TurnTaking.",46.8880717831326,99.0552210580383,101249,79,15.0853835593438,3.33254402002333,0.76492236515965,99.7665290917722,60.6245517241379
"225","TurnTaking.",0.0351545341817715,9.74429854872149,50,4,2.82,1.06387278086847,0.968378737287055,10.0898410504492,3.94594594594595
"226","TurnTaking.",5.55715804118727,78.4617387514363,43911,22,3.15674887841315,1.43482577595505,0.471281064700565,89.2996428308626,3.55466179982876
"227","TurnTaking.",4.98287419656922,78.4446244884983,50080,22,3.05467252396166,1.39284808257297,0.457493124476523,89.5212651399387,3.58633086135705
"228","TurnTaking.",7.02223096646766,87.191989171409,69383,9,3.45369903290431,1.43101669128435,0.68817356131509,87.4015748031496,3.46875
"229","TurnTaking.",8.62361652336798,88.8502195009242,106252,14,3.47440048187328,1.56255322954306,0.609194573373363,100,240.444444444444
"230","TurnTaking.",5.06604735330299,87.3389074761611,40888,34,3.49229602817453,1.63928984293145,0.481974334030074,97.2341323481739,5.48876152332286
"231","TurnTaking.",4.57896525252017,87.1207124010554,51177,24,3.09689899759658,1.44062936506839,0.480893896222341,97.2960642040457,5.41834266997276
"232","TurnTaking.",4.68789109001557,90.5762469071494,39067,37,3.56072900401874,1.70459079240423,0.536363096221567,97.4156791248861,5.65508769277291
"233","TurnTaking.",5.07853484257397,85.1106799433787,40509,23,3.44350638129798,1.62451493153845,0.533586125498618,97.4367891833846,5.78311725936119
"234","TurnTaking.",10.6757950641211,94.7664000905353,67921,16,5.91784573254222,2.28057152396802,0.842145216894353,94.8979591836735,6
"235","TurnTaking.",6.0191491066421,83.1624216050173,48926,26,3.3200547766014,1.54503152713563,0.479991031402678,93.2108025086394,3.79450199037119
"236","TurnTaking.",5.38351398032491,82.3212409213916,55764,28,3.17489778351625,1.47769864090354,0.464969670051735,92.9328671198609,3.78686598836659
"237","TurnTaking.",4.28407504098112,82.7685897708431,36363,27,3.21227621483376,1.50212554935151,0.485960827784653,91.3283165398297,3.56378919427086
"238","TurnTaking.",5.87764158918005,79.2270829160054,48865,32,3.15661516422797,1.48054079459782,0.478977826069408,93.2472482035636,3.80021770074521
"239","TurnTaking.",5.03075443905506,77.3355140244164,40004,26,3.15595940405959,1.44200034158349,0.453736915282398,92.4925421590067,3.69334442188685
"240","TurnTaking.",9.96710806278004,94.3663103753114,95594,11,3.93062326087411,1.72078187767636,0.747326074033959,94.5652173913043,3.95454545454545
"241","TurnTaking.",4.73920830550665,86.8228722961331,41512,27,3.26524860281364,1.53161292378695,0.495500449087298,92.0599030226942,3.63083569118836
"242","TurnTaking.",5.85065511030511,80.2686866554054,47770,32,3.18319028679087,1.46378781700727,0.439285107662945,90.7321579391892,3.49860571149423
"243","TurnTaking.",5.1402617081272,79.2910584342377,53089,20,3.06023846747914,1.39694170451634,0.47443391233457,90.539148938247,3.48706766917293
"244","TurnTaking.",4.24854576873464,81.5858444087993,36235,25,3.1442803918863,1.46465364245081,0.473838086843329,89.8079456920257,3.37001209189843
"245","TurnTaking.",5.74233310742121,76.9309398232793,47159,20,3.09607922135754,1.44162142047725,0.489608183656557,91.1618569900575,3.66026359770674
"246","TurnTaking.",5.34732262415339,80.1476634136107,45543,23,3.10339678984696,1.41927448774254,0.47376546304613,90.1489676603515,3.42257099184051
"247","TurnTaking.",5.21512522823238,77.1091186886333,40776,25,3.19325093192074,1.46541713017898,0.481329062325704,91.0252158567351,3.52571336819892
"248","TurnTaking.",6.35174053967266,80.1072720666066,71367,9,2.84195776759567,1.14928649279834,0.552689974573611,80.3418803418803,2.84848484848485
"249","TurnTaking.",4.63385620755957,84.6434644449259,41007,32,3.14392664667008,1.45669522856929,0.441980379427971,89.7073788842712,3.37764813487257
"250","TurnTaking.",5.41735247131723,79.6218933258866,44723,34,3.18768866131521,1.46850665543844,0.462077338469014,90.5551521921251,3.4644345206299
"251","TurnTaking.",5.5071530998099,86.1668668472948,43505,38,3.54540857372716,1.63115651712205,0.462560905425175,96.0230161168682,5.23276911836337
"252","TurnTaking.",4.98250024678338,85.5798649773792,53753,24,3.17422283407438,1.48384211057708,0.473240264019229,96.1399179431621,5.17684870091287
"253","TurnTaking.",4.64533902286014,89.4512620776492,37883,38,3.61930153366946,1.72474451759038,0.517598638476033,96.0640400837688,5.07919972404277
"254","TurnTaking.",5.08948539118589,81.0650116663311,40930,24,3.34444172978256,1.57534835684058,0.509649537530297,96.190972510097,5.20308796207316
"255","TurnTaking.",5.37400228601255,86.8416615142488,44672,31,3.45854226361031,1.6203915098518,0.503402926367359,95.9209712776123,5.1104423082682
"256","TurnTaking.",4.91332636642355,82.8203275234864,37721,46,3.58511174147027,1.66165700224704,0.471210187003755,96.1576620163394,5.189621550157
"257","TurnTaking.",4.61689590448464,81.021270357438,37830,29,3.21403647898493,1.46907764362517,0.456394630782418,95.7952394914306,5.04892354160082
"258","TurnTaking.",10.1130205411241,92.3658972350378,72078,20,5.18574322261994,1.82536975026965,0.619938047004936,92.5126831426023,5.24242424242424
"259","TurnTaking.",4.5364177195625,91.4400240505061,35941,47,3.80824128432709,1.79410368350646,0.522454970467906,95.6735811871597,4.97322544797889
"260","TurnTaking.",5.29075970655784,85.2005240970719,43905,35,3.40646851155905,1.59012578227799,0.482464954100036,96.1524438874331,5.27918178406105
"261","TurnTaking.",4.85617573781901,82.2202317639814,41332,19,3.19807897028936,1.46688135017223,0.507506117911952,95.9469294071545,5.14822108003471
"262","TurnTaking.",8.07860771129228,91.0583802998769,64381,15,3.72414221587114,1.70057798535128,0.644388420921194,98.9628116122564,15.1833702365692
"263","TurnTaking.",6.83652921150616,90.6187457393561,72873,12,3.411126205865,1.59956061442769,0.667068588262817,98.2902742487596,13.3662006742019
"264","TurnTaking.",4.76195945210779,93.6404371723429,39297,13,3.75443418072626,1.73404230099663,0.697829957171458,98.0318358953528,11.0334309593542
"265","TurnTaking.",15.2573821146031,91.1423601329375,102035,21,4.53417944822855,2.07348222964712,0.73184825067871,98.8914652477212,14.3776135647591
"266","TurnTaking.",6.25515114855551,91.0488372205019,55859,13,3.38462915555237,1.5574563486731,0.626766542238507,98.7030999426918,13.9987705757803
"267","TurnTaking.",5.10304149146992,81.6160558874724,41377,18,3.35435145128936,1.49785280419404,0.528676319888292,98.5134308698311,12.8020785572367
"268","TurnTaking.",3.66242476621866,88.9159442079374,29593,14,3.6771533808671,1.70956957805693,0.66651202024076,97.6687938684294,11.2171546546547
"269","TurnTaking.",5.76687067625066,84.1834210288305,44839,9,3.52889225897099,1.56806715141348,0.754080901041702,98.8327365783327,14.672379748835
"270","TurnTaking.",0.107864003628697,NA,0,0,0,NA,NA,0,0
"271","TurnTaking.",3.78773408126504,91.5171874501293,29233,17,3.92340847672151,1.81580000883149,0.670519330879626,98.355462640835,12.8025550477773
"272","TurnTaking.",8.6238487989035,91.0317449252732,69590,14,3.7531398189395,1.76043510626123,0.686343027062137,98.7748856792327,14.9826592651335
"273","TurnTaking.",6.933927934528,87.6237064583677,62372,10,3.23372667222472,1.50533507525092,0.685107517355325,98.7210120687108,14.4268935305695
"274","TurnTaking.",6.12472407638358,93.1867733448308,48383,17,3.93107083066366,1.78492833845125,0.643776815556449,98.1269261108362,11.7867231638418
"275","TurnTaking.",3.16190399617208,85.1802465307388,30562,9,3.59511812054185,1.62291959003844,0.780459348103336,99.8108380494612,19.2301717699776
"276","TurnTaking.",3.03849339726333,89.5568749262769,45873,14,2.97913805506507,1.27167146995661,0.530328194221991,99.7798136279637,17.4432351930347
"277","TurnTaking.",3.97087373952015,92.7471190975706,44357,16,3.43842009153009,1.60952637042132,0.594348793743269,99.5335826568153,16.7599836166291
"278","TurnTaking.",1.86863617152079,67.4822973025073,17625,11,2.97929078014184,1.30148286989322,0.565226828686235,99.8226517419968,17.9844871498032
"279","TurnTaking.",4.81746364868612,93.7082221755943,54955,10,3.4131926121372,1.52598211621716,0.694504390655946,99.8421310312441,18.7458962573867
"280","TurnTaking.",3.8371632481616,82.5534680004249,35497,10,3.72217370482013,1.69470805932762,0.771294876640321,99.7744440765016,17.9223344556678
"281","TurnTaking.",5.62842860093954,96.6929615516956,39730,55,5.72922225018877,2.33416542351689,0.58515286004398,99.7166609319179,16.753979016487
"282","TurnTaking.",0,NA,0,0,0,NA,NA,NA,NA
"283","TurnTaking.",6.12206778078904,92.9497497497498,57589,16,4.03101286704058,1.84747809115894,0.682217076480708,99.782982982983,17.4944190944191
"284","TurnTaking.",0,NA,0,0,0,NA,NA,NA,NA
"285","TurnTaking.",8.55706448247885,97.6335602135609,51549,67,6.71178878348756,2.49637058715504,0.595841600529501,99.7762238551579,18.6143195577784
"286","TurnTaking.",2.93185180204411,85.0278899473326,32076,10,3.23631375483227,1.46768516449501,0.667972304530811,99.7641026481116,17.4197654462243
"287","TurnTaking.",3.52459008502511,88.5603665489904,43012,9,3.01529805635637,1.36100539444432,0.65450524439598,99.8019761415393,16.9890735789841
"288","TurnTaking.",1.78778640448964,91.4522120452199,19427,19,3.51032068770268,1.60228154499596,0.554351370414104,99.5239308559857,15.8984575835476
"289","TurnTaking.",0,NA,0,0,0,NA,NA,NA,NA
"290","TurnTaking.",7.04647718228205,89.6152620960606,55434,35,3.65393080059169,1.7172790712977,0.495501999996718,97.8471312780944,6.35785539744143
"291","TurnTaking.",6.3391329782048,89.9057206775328,65455,36,3.4382705675655,1.64322108587167,0.517052628303583,97.9242569511026,6.41837082035034
"292","TurnTaking.",4.7928714233506,90.5975074488194,38626,33,3.66051364365971,1.75608355585926,0.576800989902505,97.4395284016275,6.18921448921449
"293","TurnTaking.",6.73087612776329,86.8654738838648,52402,24,3.65320025953208,1.75204697505307,0.55877857026564,97.8623384048534,6.49569303054033
"294","TurnTaking.",6.82393914387092,90.8216222520264,56808,29,3.56419870440783,1.70306098124324,0.522716549791813,97.8141806878176,6.389779353591
"295","TurnTaking.",5.56812662120755,83.6981342854483,42849,33,3.56699106163504,1.6853318038082,0.505770818886379,97.7860041289955,6.28052898142938
"296","TurnTaking.",5.07831362670484,92.9163373332375,37209,26,4.17033513397296,1.96651371842522,0.610931836274155,97.7204138823022,6.54201074320532
"297","TurnTaking.",18.3005224347637,97.8274722211159,99345,20,7.41763551260758,2.57305425354802,0.873869104353604,98.3193277310924,8.16279069767442
"298","TurnTaking.",14.4297013874362,98.4839497819072,79670,18,5.77285050834693,2.34642770607937,0.828186028066659,99.2599619274394,6.08010230849947
"299","TurnTaking.",5.83988050942491,84.6658943738289,47578,21,3.3334103997646,1.56605604580415,0.522762350837934,97.8155145445519,6.32260179434093
"300","TurnTaking.",20.1669112554304,98.8135899702644,97304,30,8.08706733536134,2.57251430913173,0.763970390193506,98.9130434782609,8.27272727272727
"301","TurnTaking.",6.04976982301401,94.212962962963,43083,43,4.30777800988789,2.01959211798117,0.572712887375858,97.8532123131904,6.51072381531395
"302","TurnTaking.",7.00251666066007,90.1000981354269,57203,25,3.61129661031764,1.71596772559065,0.539942939041652,98.1275760549558,6.55733022442437
"303","TurnTaking.",6.28328758267564,85.6133752935101,53526,23,3.28330157306729,1.53848435874614,0.497723464481903,97.8911113925777,6.48732849071832
"304","TurnTaking.",6.08694352960763,91.854267480188,45569,43,4.02389782527595,1.88290573175087,0.525434848842207,97.5839820464268,6.21401001626846
"305","TurnTaking.",10.7389164658703,95.0390336309347,63920,20,5.25089173967459,2.23294360705833,0.758359613786415,97.5141367720306,6.27522367390076
"306","TurnTaking.",5.14704167427903,97.3656883384154,34716,13,5.94184237815416,2.3290214514859,0.937267181318299,98.7746509454446,7.26982803543512
"307","Conversation.",5.05099235990235,82.7346675430081,42456,25,3.23176936122103,1.52767420012569,0.509950175992639,90.2436671269469,4.28594747845013
"308","Conversation.",13.3137191300918,92.6219420132042,85486,15,4.73623751257516,2.02851888222053,0.768652828969145,92.9133858267717,4.81632653061224
"309","Conversation.",4.48260961516075,82.3240288787067,36581,25,3.3103797053115,1.5707734849481,0.515934277732789,95.0461597030551,4.43943098466326
"310","Conversation.",4.65549551848038,86.7600046973473,39247,32,3.38838637348078,1.60750881595607,0.493388945722355,95.2432834457652,4.51986129601536
"311","Conversation.",4.50552578282177,86.8238079134258,37492,36,3.42390376613678,1.62574980289467,0.487890163382917,94.8806222522827,4.48884835685258
"312","Conversation.",6.69078273969524,91.0757735328298,48617,11,4.1267252195734,1.75860980970011,0.763754536173687,91.40625,4.17857142857143
"313","Conversation.",4.44200583684681,74.150335074305,35795,20,3.02623271406621,1.39343933409722,0.482096924138048,86.7257182363934,3.64107943441775
"314","Conversation.",4.9785584619068,79.2191190435608,41819,23,3.1119347664937,1.45262111403894,0.469945377961639,87.7346660498186,3.74161474558671
"315","Conversation.",4.44592419550665,79.4536898103942,36886,27,3.15824432033834,1.47827852820724,0.485553500900668,86.7896603464739,3.67299754654351
"316","Conversation.",4.66771386923104,78.9948537554557,39248,22,3.08971157766001,1.43707883925218,0.479708701588108,87.3200442967885,3.66363288509894
"317","Conversation.",5.21567308245976,85.5920976176642,46532,9,3.16564944554285,1.41130922272596,0.678696272262534,86,3.18518518518519
"318","Conversation.",4.20491883808006,78.0842563747548,35171,24,3.0787012026954,1.4239424432958,0.492650275662898,86.0570266528211,3.58573961118957
"319","Conversation.",5.5664606541275,84.0008178919388,44655,23,3.40391893404994,1.62305914362631,0.533107959237103,94.8246229683951,4.60812117305833
"320","Conversation.",5.52107813604247,87.746636086476,47531,29,3.32431465780228,1.57845234016119,0.490373790739759,94.7710095350219,4.57341551654831
"321","Conversation.",4.73578099969384,87.0594331983806,39317,24,3.41831777602564,1.62979368702296,0.527263443196079,94.3138461538462,4.54380051805386
"322","Conversation.",5.2388377402014,80.4574934268186,43505,20,3.16522238823124,1.48642864087294,0.504825758451866,94.432953549518,4.50325996099192
"323","Conversation.",5.31990391208491,86.9953393701789,43834,31,3.43222156317014,1.63755952672181,0.515271173535322,94.3968358602505,4.45910953291451
"324","Conversation.",12.1923744962142,96.6660044610862,78633,17,4.88857095621431,2.04830173207835,0.738768687778429,96.9622366789803,4.97697262272017
"325","Conversation.",5.06264575468486,86.9211658486336,41291,31,3.47402581676394,1.65241822116069,0.527004072520996,94.1865115433557,4.40928174287984
"326","Conversation.",6.12449670120045,87.1254073289219,51245,25,3.40177578300322,1.61621434220799,0.508554740883996,95.133044121469,4.57419556388629
"327","Conversation.",5.18674833368968,83.5237605870433,41964,31,3.44745496139548,1.63655004185523,0.514953531065916,95.0810302124048,4.88917586984919
"328","Conversation.",5.37049804655438,87.8824928586513,45917,26,3.44390966308775,1.63836294411631,0.522521437224469,95.1577765674843,4.90770730029522
"329","Conversation.",4.67248832661818,87.5333141597162,37716,34,3.63132357620108,1.72464897423442,0.497628504480448,95.0691848017129,4.87928885390015
"330","Conversation.",5.09578585160791,80.2182251953034,42756,21,3.20857891290111,1.50457596975969,0.510989013664543,94.7379192590167,4.79695040710585
"331","Conversation.",5.99916437109882,87.9678203891301,48953,25,3.57614446509918,1.69983612337852,0.534867001668255,95.0610025727609,4.83462816253514
"332","Conversation.",5.21870004737358,87.4668625268256,43143,30,3.53318035370744,1.67819640599774,0.515084923486291,94.9676945499615,4.86490299823633
"333","Conversation.",7.14098534841172,89.5840473463792,53776,20,3.98573713180601,1.68646362620566,0.572762294664054,89.9276095261182,4.03206401559162
"334","Conversation.",5.27640441922163,88.1785973014579,41338,49,3.76895350524941,1.77500265741587,0.484501921590719,95.2260481753147,4.97230923813464
"335","Conversation.",5.83478445352661,86.4465291573255,47425,32,3.56936215076436,1.67248648121424,0.507454267068097,95.0576303385304,4.89659072973115
"336","Conversation.",4.99101367332457,83.3261860900553,39929,23,3.45510781637406,1.63986950183224,0.538629468291412,93.9884637453568,4.76518863302303
"337","Conversation.",5.07349750649382,82.7397340519009,43085,29,3.27828710688175,1.54654550718348,0.469242128800632,94.4906566692051,4.43608712392058
"338","Conversation.",5.1307799401641,86.619132844524,45365,27,3.30724126529263,1.56500675303519,0.499126021373135,94.4304601350961,4.45226882979013
"339","Conversation.",4.60536923095162,86.8631223976266,39110,35,3.45113781641524,1.64124140973386,0.492539219823446,94.2350389672238,4.44451526740727
"340","Conversation.",4.83122774643056,79.7462155759731,41682,20,3.12554579914591,1.45962170533046,0.49572149929345,94.4419619629423,4.48652185291808
"341","Conversation.",5.58023827047469,87.2578612980189,47526,24,3.4244203173,1.63170881872072,0.520399243740015,94.1956411012519,4.38181818181818
"342","Conversation.",5.45390207248454,87.5015352739196,45793,34,3.57823248094687,1.69323621153482,0.513750006561337,94.5643293122507,4.47068921989397
"343","Conversation.",4.88450816407806,86.1643677251736,42153,29,3.35947619386521,1.59202422273401,0.507742675666919,94.0268084769792,4.38892360124964
"344","Conversation.",7.44456293136645,92.0754731996132,64002,24,3.61559013780819,1.42473857175465,0.454390432141955,92.4630253739242,3.64842290361578
"345","Conversation.",4.98200969757324,87.3512002141646,41182,30,3.56546549463358,1.68539308940434,0.505789210793586,94.2835896368125,4.47903007008818
"346","Conversation.",5.53932006103836,86.0216431496282,47563,36,3.38767529382083,1.5944488295232,0.48377662316042,94.67783525794,4.4941081067383
"347","Conversation.",4.89043866420139,83.6087336885702,40295,20,3.39163667948877,1.61625016605729,0.54891616959739,94.9241094096991,4.46342375514196
"348","Conversation.",4.66204172928389,90.378824793533,37959,45,3.81129639874601,1.80433698838918,0.492508974236959,94.1021027774654,4.44528713923154
"349","Conversation.",9.52047391566215,87.7988751289095,72168,9,4.21150648486864,1.85308018946062,0.891143199901473,100,667
"350","Conversation.",9.10505324616586,97.5199147414245,78174,19,4.14367948422749,1.74504071929169,0.603742655083881,100,667
"351","Conversation.",5.76239530023532,96.1076604554865,58071,15,3.47724337448985,1.42454558203867,0.539793344408455,100,667
"352","Conversation.",5.58543914092902,82.2765088044213,52044,14,3.22665436937976,1.32166174512437,0.515277910372618,100,667
"353","Conversation.",11.5784184254022,92.2885447228539,78267,17,4.93131204722297,1.9714625377177,0.711054806615923,100,667
"354","Conversation.",6.74107792564803,93.528035982009,60111,10,3.89175026201527,1.80284481898748,0.820510036881682,100,667
"355","Conversation.",8.24249719146204,95.3766623181915,80121,13,3.66828921256599,1.58779526810846,0.638975821584252,100,667
"356","Conversation.",9.0251891454832,93.2378323033605,60219,15,5.08100433418024,2.01228850185942,0.762502761602678,100,667
"357","Conversation.",94.3963652810329,99.9977350081496,31059,618,110.874239350913,3.72701683232763,0.580092266233023,100,667
"358","Conversation.",6.80511444980171,90.2621270010156,50136,13,4.46708951651508,1.817946816228,0.731595618041867,100,667
"359","Conversation.",8.65195474771358,95.4937088417816,80133,11,3.76762382539029,1.74499362731563,0.757841103299516,100,667
"360","Conversation.",4.59812789142767,93.907263235852,38082,12,4.09547817866709,1.64532141657382,0.686152325015309,100,667
"361","Conversation.",4.63786161284585,89.489557546808,26127,18,5.89424733034792,2.00857023014056,0.708937162940563,100,667
"362","Conversation.",4.70999839512117,91.9704920267139,44067,10,3.67506297229219,1.55807131117696,0.709108812657589,100,667
"363","Conversation.",9.1825489781713,90.9979196463399,68359,23,4.09523252241841,1.82615265428439,0.590788603469467,99.3940969964894,19.7274838709677
"364","Conversation.",6.39457603722281,93.0028937500582,51902,14,3.85160494778621,1.7869726812219,0.696689264457999,99.0369674243764,18.1217332084788
"365","Conversation.",5.39394224426765,95.6608594401002,41526,14,4.17444492607041,1.84337569055474,0.718679175942516,99.1043590069036,17.8339622641509
"366","Conversation.",7.9365630947544,84.1313679042284,55458,14,4.05378845252263,1.87751846697464,0.731990462701679,98.9772433846396,19.2563523844194
"367","Conversation.",8.48943102915707,95.4401625302621,61439,16,4.38888979312814,2.00855288148093,0.741697063320107,99.2485806917446,20.1704071356639
"368","Conversation.",5.48284306269583,91.5101335310781,46666,15,3.67575965370934,1.61510427686136,0.612000451349354,99.00665254712,18.1981761129633
"369","Conversation.",6.34727931442904,94.7161164622266,50121,15,4.13186089663016,1.82576373928078,0.691824205102415,99.074760114523,17.6705277755119
"370","Conversation.",0,NA,0,0,0,NA,NA,NA,NA
"371","Conversation.",5.18358531317495,92.5701354339414,38565,13,4.16857253986776,1.86571599520182,0.750819349837947,99.1022894785333,18.0026150627615
"372","Conversation.",62.4141572806407,99.8598173383216,89843,341,23.3188562269737,3.54972395240756,0.608982170237317,99.9155853472178,27.6785327593947
"373","Conversation.",3.69164954124508,91.1418941800648,31011,15,3.64502918319306,1.60408978523484,0.607826805137534,98.9929206108594,15.9964820846906
"374","Conversation.",9.65236642454742,92.452052223306,72496,22,4.14449073052306,1.92197745648372,0.728281812947171,99.4347500992341,21.0221181368722
"375","Conversation.",0.44777052226473,78.7947926452825,4964,13,2.36543110394843,0.66051060515282,0.265809021521662,95.9200107368139,7.61940298507463
"376","Conversation.",4.36063381451694,94.3695038267787,27510,24,5.11403126135951,2.08252655097552,0.664178087267941,99.0910981278634,17.4699621570483
"377","Conversation.",3.46271975661302,77.4012625648678,26567,11,3.47517597018858,1.60964639825088,0.699060548575801,96.3539876426254,13.6417804154303
"378","Conversation.",1.41318246779064,95.0880127742083,13194,10,3.7912687585266,1.59895699111991,0.72771668750328,96.956620917766,12.1209600760456
"379","Conversation.",4.65729212789929,81.9479164616263,38306,25,3.26048138672793,1.54442928938268,0.499646741410719,94.5777480332526,4.16881163779391
"380","Conversation.",4.8870432045466,86.478704707774,42065,29,3.29875193153453,1.5585370209447,0.484186748958703,94.5942240337035,4.24368831604552
"381","Conversation.",8.70121385725185,94.2864643494697,55866,13,4.82166254967243,2.05869422552664,0.828479502721874,94.5783891630789,4.90614446018085
"382","Conversation.",9.71758152524494,97.5224838263271,69649,20,4.48230412496949,1.81396329909076,0.616064150734848,99.9981256970064,132.223461379595
"383","Conversation.",4.56604640645846,82.446141114285,36538,24,3.38097323334611,1.59631843332666,0.509112223909371,94.1916495368269,5.05327795481399
"384","Conversation.",4.66308874046671,86.756813089469,40302,23,3.30494764527815,1.55937967107531,0.504483420918756,94.496117971966,4.93244483731683
"385","Conversation.",4.44247789762098,87.0225195643846,35860,34,3.54749023982153,1.68211674916124,0.49954528324528,94.4645104799431,4.96412394852254
"386","Conversation.",4.81029252853703,87.104928065074,40002,35,3.43722813859307,1.63332604807735,0.513939075694802,94.7114684100829,4.98359945331511
"387","Conversation.",6.42951515758973,93.236680744121,36817,17,5.36081158160632,2.02400662489936,0.730006080117179,93.4946099411392,5.47619047619048
"388","Conversation.",5.5179730244998,82.0909997630501,45323,25,3.28691834168082,1.55123193885682,0.494732833814887,94.0938872449345,4.12950423216445
"389","Conversation.",5.56782951022375,86.1321576311779,47252,25,3.34889528485567,1.58325281590782,0.504945219756576,94.0153494448073,4.1468596946125
"390","Conversation.",4.77413783274689,85.6126622799218,39973,28,3.3720761514022,1.59298183012637,0.501244445551749,93.4160717461447,4.04716435981398
"391","Conversation.",5.44981065763342,79.4607018537333,45154,23,3.16975240288789,1.4841393532547,0.487478540103808,93.9674555720258,4.1538518173117
"392","Conversation.",5.18511220939673,85.8490787328619,43478,24,3.36710520263122,1.59105853002328,0.514732021326543,93.8437540316433,4.09257838473735
"393","Conversation.",10.7451351195726,94.7889461125809,83289,14,4.03508266397724,1.85988000376977,0.725113733087675,95.1451682959436,4.08304284676834
"394","Conversation.",4.82256329271295,85.449035154457,40225,29,3.37847110006215,1.58274502270354,0.485788252199758,93.0407882244201,4.06441069025187
"395","Conversation.",3.57730299839454,73.4009803078511,27261,17,3.1311397234144,1.45533471828471,0.524901045225721,87.4297016080488,4.59659116596591
"396","Conversation.",5.28392131973859,84.0690967749423,42653,16,3.39678334466509,1.62174846101299,0.598862037473648,91.3124209402453,5.29834012322817
"397","Conversation.",4.19825643498689,81.2558000189985,33768,17,3.2930881307747,1.56199184920521,0.563369473689334,88.3173916538183,4.60420555407413
"398","Conversation.",5.72871421811074,77.4324887525781,44213,16,3.27772374640943,1.55842587049144,0.57547894417066,90.9967192793101,5.41662160872746
"399","Conversation.",4.72499612134117,84.2705465985057,38066,19,3.377817474912,1.61214044090868,0.557762314312856,91.7682527198846,5.1555653742774
"400","Conversation.",4.63861979904472,82.8517617099164,37892,18,3.29708117808508,1.56341559250375,0.551817107519851,90.3953153702807,5.08232662192394
"401","Conversation.",3.27150699589613,96.4330565500178,24328,11,4.22952975994739,1.65337670731094,0.71805238049251,96.7741935483871,4.28571428571429
"402","Conversation.",4.02741553207324,81.0875658876939,33138,24,3.21247510411008,1.50698416049588,0.480620934600995,88.8303220499071,4.65047653228058
"403","Conversation.",5.4903570490605,83.5922995868805,44537,23,3.36657161461257,1.60373113982164,0.518831806428036,92.2204195866575,5.45449449317417
"404","Conversation.",4.21675779043868,85.4766892731598,34528,37,3.48598239110287,1.65750897867087,0.482677680483489,97.9938216809289,5.86218615914015
"405","Conversation.",4.54721548191459,90.449216955249,38834,23,3.54851418859762,1.6908558495755,0.547017996384502,98.0105543668036,5.91940854673749
"406","Conversation.",4.38054926113376,90.6598313438635,34910,43,3.80945287883128,1.8024053170212,0.491981708271606,97.8798682927827,5.74729805459931
"407","Conversation.",4.52907425087037,83.4174358704448,38065,28,3.33093392880599,1.57676358665249,0.496141245813908,97.9631176931124,5.88030171392465
"408","Conversation.",4.95797437766447,90.6638941077042,40337,33,3.69670525819967,1.76573126315098,0.5298988275657,97.9905027695189,5.95074400915704
"409","Conversation.",5.25184610454627,92.0482991372759,39828,54,4.13621070603596,1.92657887765016,0.515449216866578,98.0750748737205,6.18234651826283
"410","Conversation.",4.77739507590254,90.7820756313582,39601,31,3.65725612989571,1.74686801762968,0.524237936865956,97.8913982336386,5.92754393289559
"411","Conversation.",3.80105596494841,96.9298176735713,31212,17,3.95501730103806,1.492611377995,0.538345758251958,97.2972972972973,4
"412","Conversation.",4.80191384930736,91.5005690333895,36386,51,4.04364315945693,1.89525782894138,0.517326583256382,97.9825745184982,6.06190604439998
"413","Conversation.",4.86831456710135,89.3703100708768,39639,38,3.68361966749918,1.73754549436343,0.516006190751113,97.9667282809612,6.05370650529501
"414","Conversation.",4.20669214551036,84.6080532007137,32650,19,3.61617151607963,1.72966338481042,0.598422462468774,97.6215898586139,5.47056461328407
"415","Conversation.",3.72376468909931,74.4012131369967,31646,14,2.94574353788788,1.34057719642803,0.522652500926865,90.0171595035716,3.98399858707171
"416","Conversation.",4.93486181462721,82.9755816466182,43948,17,3.14539910803677,1.47697343997692,0.532705564344853,92.1612763811856,4.47642788419487
"417","Conversation.",4.21725883510569,83.4410929637646,36746,18,3.23109998367169,1.52402359242551,0.537913459860957,90.8216906080454,3.9865502668353
"418","Conversation.",5.81346037829589,78.6571438745352,48697,16,3.17524693512947,1.4913493678708,0.550709646100284,92.9306494523886,4.88695093895458
"419","Conversation.",4.59080546430431,83.7230520580798,40488,18,3.17298952776131,1.49570323216771,0.52791761527791,91.95862985845,4.36411715584697
"420","Conversation.",4.77524784771491,83.0862217234586,42376,17,3.21476779309043,1.50804532288434,0.543912377190258,91.8541604405926,4.35186522957783
"421","Conversation.",4.68010752688172,84.1970687962054,42485,15,3.20880310697893,1.51508997958349,0.57410271561034,91.9073823596623,4.33962264150943
"422","Conversation.",4.54893988837176,83.1863321573239,39675,17,3.20919974795211,1.51706341828,0.547164967566653,91.7698941591533,4.39688849934264
"423","Conversation.",4.3841938446044,93.7820088374796,39739,9,3.49286595032588,1.50124868139754,0.721948009264441,94.1860465116279,3.52173913043478
"424","Conversation.",3.85786771941056,81.8992670897162,35108,30,3.03648741027686,1.40180523212431,0.46793408226072,90.247837376888,3.90765750781718
"425","Conversation.",5.65078013177662,83.6115763031191,48002,15,3.32829882088246,1.57798614673699,0.597935531384247,93.1416160770358,4.73841853035144
"426","Conversation.",9.72920817850539,87.4153958750396,67299,43,4.22394092037029,1.9787033890626,0.540103751537248,95.3491947809134,5.86581536133182
"427","Conversation.",4.15315299572455,86.6249184788325,36267,17,3.406071635371,1.62518814150564,0.600132206132726,90.7805695612233,4.2418900321122
"428","Conversation.",2.78876485455531,81.126604997929,25482,18,3.22831802841221,1.52089542087995,0.561620098571632,98.8442042563263,9.51942254725045
"429","Conversation.",4.35237037950742,90.8578482312115,41255,16,3.49690946551933,1.67690516120938,0.619229717575716,98.7366246591217,9.51189176070865
"430","Conversation.",5.42008809316154,93.2361454074404,42135,85,4.37301530793877,1.91278901104917,0.431701218508632,98.9525563696717,10.6135142469471
"431","Conversation.",4.93418496078464,82.41636347502,45439,16,3.27031844890953,1.54205112797468,0.569432253267332,99.0205430827935,10.744298008064
"432","Conversation.",2.67615733242524,88.5549647224349,24884,15,3.43992123452821,1.64819976330816,0.624541098373354,98.7709751505245,9.28374173473357
"433","Conversation.",3.86367188973874,91.3023158482143,31894,20,4.10393804477331,1.93707315819938,0.657875123887864,98.7688337053571,9.45163874240705
"434","Conversation.",4.18835927887444,89.5884689563563,36155,20,3.88004425390679,1.85381934224671,0.629600190516264,99.0273715402399,9.95333461711278
"435","Conversation.",0,NA,0,0,0,NA,NA,NA,NA
"436","Conversation.",4.29582326070037,88.9167733674776,36296,16,3.82653735948865,1.8226740933624,0.673057719764776,98.9539052496799,9.86696457069901
"437","Conversation.",0.28304757205707,99.7482084059655,1760,6,5.85227272727273,0.306376159268849,0.190362210869935,100,6
"438","Conversation.",4.00502997690709,92.6500900506064,31374,21,4.31236055332441,2.00375763920605,0.668870732172903,98.7420306925337,10.2766730810349
"439","Conversation.",4.27379056313592,89.3105038034987,38497,18,3.62308751331273,1.73992406959621,0.61411685542368,98.993417514023,9.67822711906849
"440","Conversation.",10.5421141371606,90.6066001712284,73404,42,4.70015258024086,2.13141357654048,0.573952393613315,99.6160492465426,12.4492434933867
"441","Conversation.",3.82984859020175,95.2232504134267,31831,27,4.25110741101442,1.99107042565566,0.618560806314168,98.7664051229724,9.75072947061276
"442","Conversation.",10.8493018777082,93.1927556383933,80245,38,4.71058632936632,2.14996817813772,0.59540765814954,99.5569657702435,12.3740577312006
"443","Conversation.",6.36295365027514,86.3835516193192,51156,24,3.59975369458128,1.72573404078555,0.558301630218826,96.692873494202,5.5044729884904
"444","Conversation.",5.8053537535179,90.1019780670288,50274,24,3.49733460635716,1.67458214700735,0.550031139944412,96.3123911038229,5.43033805258596
"445","Conversation.",4.8403228072515,88.9835928467764,40790,31,3.54738906594754,1.69407690237211,0.540290233598821,95.9326494969621,5.31165514658313
"446","Conversation.",5.56639627245662,82.4786438796907,47435,23,3.25875408453673,1.54358546470681,0.50700413489514,96.252207643917,5.4136306344157
"447","Conversation.",6.95092973530398,90.9233562443263,56496,40,3.72297153780799,1.78261292137182,0.553799841422838,96.6913067911641,5.44700954607442
"448","Conversation.",5.98062122527489,89.5434426429951,49562,45,3.69405996529599,1.76261595313921,0.540995618935706,96.3470520627002,5.24609198157173
"449","Conversation.",5.76165842216494,89.2705808850574,50271,26,3.52445744067156,1.68122056304503,0.529009467048884,96.372806376686,5.28731755860239
"450","Conversation.",17.2012507656104,98.0818965517241,92574,22,6.7841726618705,2.26481492978844,0.743898255347389,98.125,6.82608695652174
"451","Conversation.",14.4611919167417,96.6205985826756,82555,22,5.80513596995942,2.37119135988153,0.77883852340882,98.0252215199444,6.69507862631159
"452","Conversation.",5.49397839217639,89.7393827113543,45751,34,3.61034731481279,1.73125838158041,0.544754265975056,96.3066993366402,5.32759294322724
"453","Conversation.",19.4053632734175,97.9436997154631,92307,19,6.9211977423164,2.53825818370839,0.878177063823767,98.1523498822606,7.1534748603352
"454","Conversation.",4.90050983352423,88.8838271559945,39646,27,3.69099026383494,1.7589471971862,0.539869576195659,96.0026482986503,5.1695231242232
"455","Conversation.",6.8861421779327,89.8051343098183,58156,25,3.5802840635532,1.71077501447316,0.538309011048394,96.6400979935476,5.4918502904483
"456","Conversation.",4.84167276634564,86.1468476351833,38372,19,3.61750755759408,1.73441918147271,0.600067855193531,95.4764076880589,5.11075676034815
"457","Conversation.",4.78783149135718,92.6780543235219,37959,31,3.99644353117838,1.89688101778527,0.56925708250888,95.9911049203964,5.14435386176865
"458","Conversation.",5.48494507536171,86.7837049661005,45801,21,3.5800528372743,1.71159540597291,0.581297631937158,95.8563784461816,5.40648974596257
"459","Conversation.",3.51283539107916,92.8039398620436,26367,31,4.60257139606326,2.10815345614166,0.632660285316885,95.0185828120459,5.51128853404303
